Twitter
…
   register_google(key = Sys.getenv("GOOGLE_MAPS_API"))

   followers_geo <- followers %>%
      head (sample) %>%
      mutate_geocode (location, output = "more") %>%
      mutate (
         country = word (address, -1,-1),
         country = str_to_upper(country),
         country = ifelse(is.na(country), "NOT LISTED", country)
         ) %>%
      select (rank:followers_count, country, lon, lat) 
   
   followers_geo

## # A tibble: 105 x 8
##     rank screen_name  name     location   followers_count country     lon    lat
##    <int> <chr>        <chr>    <chr>                <int> <chr>     <dbl>  <dbl>
##  1     1 Bybit_Offic Bybit    ""                   98172 NOT LI   NA     NA   
##  2     2 heronstairs ana cha ""                   28180 NOT LI   NA     NA   
##  3     3 usmntonly    USMNT O "United S           27770 STATES   -95.7   37.1 
##  4     4 ECAEurope    ECA      "Nyon, Sw           19271 SWITZE    6.23  46.4 
##  5     5 Hitekanicli Hitekan "Tembisa,           13701 AFRICA    28.2  -26.0 
##  6     6 theTimothyB  Tim Ber "Oklahoma"           10198 USA      -97.5   35.5 
##  7     7 GovernorMdo Governo "Mombasa "            9097 KENYA     39.7   -4.04
##  8     8 DerekKXLY    Derek D "Spokane,            6932 USA     -117.    47.7 
##  9     9 haesham      Random  "Maldives"            6644 MALDIV   73.2    3.20
## 10    10 BrianPHickey Brian P "Philadel            6160 USA      -75.2   40.0 
## #  with 95 more rows
…
